<?xml version="1.0" encoding="iso-8859-1"?>
<!-- Generator: Dynamo SVG Export Addon. visit www.dynamobim.org  -->
<!DOCTYPE svg PUBLIC "-//W3C//DTD SVG 1.1//EN" "http://www.w3.org/Graphics/SVG/1.1/DTD/svg11.dtd">
<svg version="1.1" xmlns="http://www.w3.org/2000/svg" xmlns:xlink="http://www.w3.org/1999/xlink" width="62900.0589037401px" height="53604.0472616933px" viewBox="0 0 62900.0589037401 53604.0472616933" xml:space="preserve"> 
<g>
<polygon id="379575"points="33773.4911421081, 4222.50000000015 32249.4006071013, 4222.50000000015 32249.4006071013, 1829.99999987203 32249.4006071013, 0 25934.4006071013, 0 25934.4006071013, 8315.00000105946 33773.4911421081, 8315.00000105948 " style="fill: none; stroke-width: 1; stroke: #000000;"/>
<polygon id="379578"points="19934.4006071013, 8315.00000105943 25819.4006071013, 8315.00000105946 25819.4006071013, 0 19934.4006071013, 0 " style="fill: none; stroke-width: 1; stroke: #000000;"/>
<polygon id="379580"points="11964.4006071013, 4860.00000874748 11964.4006071012, 8315.00000105941 19819.4006071013, 8315.00000105943 19819.4006071013, 0 11964.4006071013, 0 " style="fill: none; stroke-width: 1; stroke: #000000;"/>
<polygon id="379582"points="150.058902701371, 8880.00000233998 0, 8880.00000233998 0, 11972.5000023399 8135.05890261093, 11972.50000234 8135.05890261093, 10719.1912698227 8135.05890261093, 8342.5000010594 8135.05890261093, 4860.00000874748 8222.55890261093, 4860.00000874748 8222.55890261094, 165.000000000006 150.058902701387, 165.000000000006 " style="fill: none; stroke-width: 1; stroke: #000000;"/>
<polygon id="379584"points="8726.90060710129, 165.000000000006 8222.55890261094, 165.000000000006 8222.55890261093, 4772.50000874748 9550.05890239556, 4772.50000874748 10713.4797547484, 4772.50000874748 11789.4006071012, 4772.50000874748 11789.4006071013, 0 8726.9006071013, 0 " style="fill: none; stroke-width: 1; stroke: #000000;"/>
<polygon id="379586"points="8310.05890261093, 4947.50000874749 8310.05890261093, 8255.00000105941 9492.55890239556, 8255.00000105941 9492.55890239556, 4947.50000874749 " style="fill: none; stroke-width: 1; stroke: #000000;"/>
<polygon id="379588"points="9607.55890239556, 4947.50000874749 9607.55890239556, 8255.00000105941 10655.9797547484, 8255.00000105941 10655.9797547484, 4947.50000874749 " style="fill: none; stroke-width: 1; stroke: #000000;"/>
<polygon id="379597"points="11789.4006071012, 4947.50000874749 10770.9797547484, 4947.50000874749 10770.9797547484, 8255.00000105941 11789.4006071012, 8255.00000105941 " style="fill: none; stroke-width: 1; stroke: #000000;"/>
<polygon id="379770"points="0, 19972.50000234 8135.05890261093, 19972.50000234 8135.05890261093, 12087.50000234 0, 12087.5000023399 " style="fill: none; stroke-width: 1; stroke: #000000;"/>
<polygon id="379918"points="0, 27972.50000234 8135.05890261093, 27972.50000234 8135.05890261093, 20087.50000234 0, 20087.50000234 " style="fill: none; stroke-width: 1; stroke: #000000;"/>
<polygon id="379923"points="0, 33990.0000023399 8135.05890261093, 33990.00000234 8135.05890261093, 28789.3549372611 8135.05890261093, 28513.8157372611 8135.05890261093, 28087.50000234 0, 28087.5000023399 " style="fill: none; stroke-width: 1; stroke: #000000;"/>
<polygon id="379928"points="0, 43972.5000023399 8135.05890261093, 43972.50000234 8135.05890261093, 38085.00000234 0, 38085.0000023399 " style="fill: none; stroke-width: 1; stroke: #000000;"/>
<polygon id="379930"points="8249.99999757858, 45531.4390471624 8135.05890261093, 45531.4390471624 8135.05890261093, 45330.0000001048 8135.05890261093, 44087.50000234 0, 44087.5000023399 0, 53604.0472616932 8249.99999757857, 53604.0472616932 " style="fill: none; stroke-width: 1; stroke: #000000;"/>
<polygon id="379935"points="11349.9999977765, 53534.0459771081 17038.9704222558, 53534.0459771081 17038.9704222558, 45562.5000001048 11349.9999977765, 45562.5000001048 " style="fill: none; stroke-width: 1; stroke: #000000;"/>
<polygon id="379940"points="17238.9704222558, 53534.0459771081 19681.4704220928, 53534.0459771081 19681.4704220928, 47817.5000001281 18738.9704220346, 47817.5000001281 18738.9704220346, 45562.5000001048 17238.9704222558, 45562.5000001048 " style="fill: none; stroke-width: 1; stroke: #000000;"/>
<polygon id="379945"points="20438.9704220463, 45562.5000001048 20438.9704220463, 47817.5000001281 19796.4704220928, 47817.5000001281 19796.4704220929, 53534.0459771081 22038.9704221976, 53534.0459771081 22038.9704221976, 45562.5000001049 " style="fill: none; stroke-width: 1; stroke: #000000;"/>
<polygon id="379950"points="38296.4704221976, 53604.0472616933 46181.4704221976, 53604.0472616933 46181.4704221976, 45502.5000001049 38296.4704221976, 45502.5000001049 " style="fill: none; stroke-width: 1; stroke: #000000;"/>
<polygon id="379952"points="46296.4704221976, 53604.0472616933 54181.4704221976, 53604.0472616933 54181.4704221976, 45502.5000001049 46296.4704221976, 45502.5000001049 " style="fill: none; stroke-width: 1; stroke: #000000;"/>
<polygon id="379957"points="54296.4704221976, 53604.0472616933 62900.0589037401, 53604.0472616933 62900.0589037401, 45502.500000105 54296.4704221976, 45502.5000001049 " style="fill: none; stroke-width: 1; stroke: #000000;"/>
<polygon id="379959"points="16888.9704222703, 28651.5853372611 16888.9704222703, 20875.2591228299 16038.970422314, 20875.2591228299 16038.970422314, 20675.2591228299 16888.9704222703, 20675.2591228299 16888.9704222704, 13049.5832851343 16038.970422314, 13049.5832851343 16038.970422314, 12849.5832851343 16888.9704222704, 12849.5832851343 16888.9704222704, 10719.1912698227 8250.05890261093, 10719.1912698227 8250.05890261093, 12030.00000234 8250.05890261093, 20030.00000234 8250.05890261093, 28030.00000234 8250.05890261093, 28651.5853372611 " style="fill: none; stroke-width: 1; stroke: #000000;"/>
<polygon id="379968"points="22238.9704221976, 53604.0472616933 30181.4704221976, 53604.0472616933 30181.4704221976, 45502.5000001049 22238.9704221976, 45502.5000001048 " style="fill: none; stroke-width: 1; stroke: #000000;"/>
<polygon id="379973"points="30296.4704221976, 53604.0472616933 38181.4704221976, 53604.0472616933 38181.4704221976, 45502.5000001049 30296.4704221976, 45502.5000001049 " style="fill: none; stroke-width: 1; stroke: #000000;"/>
</g>
</svg>
